ans 	 1 	 0.000000
pi 	 1 	 3.141593
e 	 1 	 2.718281
T	 0	 0
x 	 0 	 10.000000
y 	 0 	 12.000000
z 	 0 	 0.000000
t 	 0 	 5.000000
w 	 0 	 0.000000
m	 0	 0.001
CR	 0	0
CG	 0	0
CB	0	0
X	0	0
Y	0	0
#end
